Notes from R Programming Google Course
…
colnames(diamonds)

##  [1] "carat"   "cut"     "color"   "clarity" "depth"   "table"   "price"  
##  [8] "x"       "y"       "z"

Now, let us clean the data. You might need to rename columns, or
variables. There is a function for that rename()

rename(diamonds,carat_new=carat)

## # A tibble: 53,940 × 10
##    carat_new cut       color clarity depth table price     x     y     z
##        <dbl> <ord>     <ord> <ord>   <dbl> <dbl> <int> <dbl> <dbl> <dbl>
##  1      0.23 Ideal     E     SI2      61.5    55   326  3.95  3.98  2.43
##  2      0.21 Premium   E     SI1      59.8    61   326  3.89  3.84  2.31
##  3      0.23 Good      E     VS1      56.9    65   327  4.05  4.07  2.31
##  4      0.29 Premium   I     VS2      62.4    58   334  4.2   4.23  2.63
##  5      0.31 Good      J     SI2      63.3    58   335  4.34  4.35  2.75
##  6      0.24 Very Good J     VVS2     62.8    57   336  3.94  3.96  2.48
##  7      0.24 Very Good I     VVS1     62.3    57   336  3.95  3.98  2.47
##  8      0.26 Very Good H     SI1      61.9    55   337  4.07  4.11  2.53
##  9      0.22 Fair      E     VS2      65.1    61   337  3.87  3.78  2.49
## 10      0.23 Very Good H     VS1      59.4    61   338  4     4.05  2.39
## # … with 53,930 more rows

You can rename more than one variable in the same
rename() code.

rename(diamonds, carat_new = carat, cut_new = cut)

## # A tibble: 53,940 × 10
##    carat_new cut_new   color clarity depth table price     x     y     z
##        <dbl> <ord>     <ord> <ord>   <dbl> <dbl> <int> <dbl> <dbl> <dbl>
##  1      0.23 Ideal     E     SI2      61.5    55   326  3.95  3.98  2.43
##  2      0.21 Premium   E     SI1      59.8    61   326  3.89  3.84  2.31
##  3      0.23 Good      E     VS1      56.9    65   327  4.05  4.07  2.31
##  4      0.29 Premium   I     VS2      62.4    58   334  4.2   4.23  2.63
##  5      0.31 Good      J     SI2      63.3    58   335  4.34  4.35  2.75
##  6      0.24 Very Good J     VVS2     62.8    57   336  3.94  3.96  2.48
##  7      0.24 Very Good I     VVS1     62.3    57   336  3.95  3.98  2.47
##  8      0.26 Very Good H     SI1      61.9    55   337  4.07  4.11  2.53
##  9      0.22 Fair      E     VS2      65.1    61   337  3.87  3.78  2.49
## 10      0.23 Very Good H     VS1      59.4    61   338  4     4.05  2.39
## # … with 53,930 more rows
…
Tibbles are like streamlined data frames that are automatically set
to pull up only the first 10 rows of a dataset, and only as many columns
as can fit on the screen. This is really useful when you’re working with
large sets of data. Unlike data frames, tibbles never change the names
of your variables, or the data types of your inputs. Overall, you can
make more changes to data frames, but tibbles are easier to use.

to convert a dataframe

data("diamonds")
View(diamonds)

as_tibble(diamonds)

## # A tibble: 53,940 × 10
##    carat cut       color clarity depth table price     x     y     z
##    <dbl> <ord>     <ord> <ord>   <dbl> <dbl> <int> <dbl> <dbl> <dbl>
##  1  0.23 Ideal     E     SI2      61.5    55   326  3.95  3.98  2.43
##  2  0.21 Premium   E     SI1      59.8    61   326  3.89  3.84  2.31
##  3  0.23 Good      E     VS1      56.9    65   327  4.05  4.07  2.31
##  4  0.29 Premium   I     VS2      62.4    58   334  4.2   4.23  2.63
##  5  0.31 Good      J     SI2      63.3    58   335  4.34  4.35  2.75
##  6  0.24 Very Good J     VVS2     62.8    57   336  3.94  3.96  2.48
##  7  0.24 Very Good I     VVS1     62.3    57   336  3.95  3.98  2.47
##  8  0.26 Very Good H     SI1      61.9    55   337  4.07  4.11  2.53
##  9  0.22 Fair      E     VS2      65.1    61   337  3.87  3.78  2.49
## 10  0.23 Very Good H     VS1      59.4    61   338  4     4.05  2.39
## # … with 53,930 more rows
…
In penguins data frame, we organize the data with the filter(),
arrange(), group_by() functions

penguins %>% arrange(bill_length_mm)

## # A tibble: 344 × 8
##    species island    bill_length_mm bill_depth_mm flipper_…¹ body_…² sex    year
##    <fct>   <fct>              <dbl>         <dbl>      <int>   <int> <fct> <int>
##  1 Adelie  Dream               32.1          15.5        188    3050 fema…  2009
##  2 Adelie  Dream               33.1          16.1        178    2900 fema…  2008
##  3 Adelie  Torgersen           33.5          19          190    3600 fema…  2008
##  4 Adelie  Dream               34            17.1        185    3400 fema…  2008
##  5 Adelie  Torgersen           34.1          18.1        193    3475 <NA>   2007
##  6 Adelie  Torgersen           34.4          18.4        184    3325 fema…  2007
##  7 Adelie  Biscoe              34.5          18.1        187    2900 fema…  2008
##  8 Adelie  Torgersen           34.6          21.1        198    4400 male   2007
##  9 Adelie  Torgersen           34.6          17.2        189    3200 fema…  2008
## 10 Adelie  Biscoe              35            17.9        190    3450 fema…  2008
## # … with 334 more rows, and abbreviated variable names ¹​flipper_length_mm,
## #   ²​body_mass_g

Arrange in descending order

penguins %>% arrange(-bill_length_mm)

## # A tibble: 344 × 8
##    species   island bill_length_mm bill_depth_mm flipper_l…¹ body_…² sex    year
##    <fct>     <fct>           <dbl>         <dbl>       <int>   <int> <fct> <int>
##  1 Gentoo    Biscoe           59.6          17           230    6050 male   2007
##  2 Chinstrap Dream            58            17.8         181    3700 fema…  2007
##  3 Gentoo    Biscoe           55.9          17           228    5600 male   2009
##  4 Chinstrap Dream            55.8          19.8         207    4000 male   2009
##  5 Gentoo    Biscoe           55.1          16           230    5850 male   2009
##  6 Gentoo    Biscoe           54.3          15.7         231    5650 male   2008
##  7 Chinstrap Dream            54.2          20.8         201    4300 male   2008
##  8 Chinstrap Dream            53.5          19.9         205    4500 male   2008
##  9 Gentoo    Biscoe           53.4          15.8         219    5500 male   2009
## 10 Chinstrap Dream            52.8          20           205    4550 male   2008
## # … with 334 more rows, and abbreviated variable names ¹​flipper_length_mm,
## #   ²​body_mass_g
…
